<?xml version="1.0" encoding="UTF-8" standalone="no"?>
<svg width="11px" height="10px" viewBox="0 0 11 10" version="1.1" xmlns="http://www.w3.org/2000/svg" xmlns:xlink="http://www.w3.org/1999/xlink" xmlns:sketch="http://www.bohemiancoding.com/sketch/ns">
    <!-- Generator: Sketch 3.0.4 (8053) - http://www.bohemiancoding.com/sketch -->
    <title>Slice 2</title>
    <desc>Created with Sketch.</desc>
    <defs></defs>
    <g id="Page-1" stroke="none" stroke-width="1" fill="none" fill-rule="evenodd" sketch:type="MSPage">
        <path d="M7.39,0 L2.275,0 C2.275,0 0,0 0,2.271 L0,3.978 C0,3.978 0,6.252 2.275,6.252 L3.979,6.252 L6.537,8.81 L6.963,6.252 L7.39,6.252 C7.39,6.252 9.663,6.252 9.663,3.978 L9.663,2.271 C9.663,2.271 9.663,0 7.39,0" id="Imported-Layers" fill="#FFFFFF" sketch:type="MSShapeGroup"></path>
    </g>
</svg>