<?xml version="1.0" encoding="UTF-8" standalone="no"?>
<svg width="133px" height="133px" viewBox="0 0 133 133" version="1.1" xmlns="http://www.w3.org/2000/svg" xmlns:xlink="http://www.w3.org/1999/xlink" xmlns:sketch="http://www.bohemiancoding.com/sketch/ns">
    <!-- Generator: Sketch 3.1.1 (8761) - http://www.bohemiancoding.com/sketch -->
    <title>brand-levis</title>
    <desc>Created with Sketch.</desc>
    <defs></defs>
    <g id="Page-1" stroke="none" stroke-width="1" fill="none" fill-rule="evenodd" sketch:type="MSPage">
        <g id="Imported-Layers" sketch:type="MSLayerGroup">
            <path d="M49.897,23.716 L83.279,23.716 L83.279,110.717 L49.897,110.717 L49.897,23.716 Z" id="Stroke-3" stroke="#FFFFFF" sketch:type="MSShapeGroup"></path>
            <path d="M49.897,23.716 L83.279,23.716 L83.279,110.717 L49.897,110.717 L49.897,23.716 L49.897,23.716 Z M72.87,23.716 L49.897,23.716 L49.897,63.762 C51.198,63.819 52.499,64.277 53.643,65.052 C55.499,66.305 56.964,68.356 57.317,70.831 C57.372,71.201 57.407,71.59 57.407,71.996 C57.407,72.402 57.372,72.791 57.317,73.181 C56.964,75.673 55.499,77.81 53.643,79.082 C52.511,79.86 51.222,80.302 49.931,80.302 L49.931,79.029 C51.31,78.994 52.599,78.429 53.643,77.527 C55.128,76.22 56.116,74.205 56.116,71.925 C56.116,69.717 55.11,67.808 53.643,66.606 C52.565,65.686 51.239,65.157 49.897,65.157 L49.897,110.717 L83.278,110.717 L83.278,23.716 L72.87,23.716 L72.87,23.716 Z M49.913,71.396 L50.056,71.396 L50.179,71.396 C50.62,71.396 50.921,71.308 51.116,71.112 C51.292,70.918 51.382,70.582 51.382,70.123 C51.382,69.698 51.292,69.399 51.116,69.221 C50.921,69.026 50.62,68.939 50.179,68.939 C50.144,68.939 50.108,68.957 50.056,68.957 L49.913,68.957 L49.931,67.241 L50.196,67.241 C50.974,67.241 51.558,67.277 51.911,67.366 C52.265,67.437 52.548,67.577 52.759,67.772 C53.024,68.002 53.218,68.285 53.343,68.639 C53.466,68.976 53.537,69.38 53.537,69.84 C53.537,70.423 53.448,70.901 53.253,71.289 C53.077,71.68 52.794,71.996 52.405,72.244 C53.06,72.562 53.413,73.321 53.448,74.523 L53.448,74.541 C53.448,74.665 53.448,74.859 53.466,75.089 C53.466,75.76 53.537,76.272 53.643,76.644 C53.731,76.891 53.837,77.085 53.96,77.191 L51.487,77.191 C51.435,76.997 51.398,76.767 51.363,76.556 C51.345,76.326 51.327,76.078 51.327,75.814 C51.327,75.654 51.327,75.46 51.345,75.248 L51.345,74.807 C51.345,74.188 51.274,73.781 51.134,73.552 C50.991,73.321 50.727,73.215 50.356,73.215 L49.913,73.215 L49.913,71.396 L49.913,71.396 Z M64.565,28.223 L64.565,36.069 L74.601,36.069 L74.601,39.567 L58.644,39.567 L58.626,28.223 L64.565,28.223 L64.565,28.223 Z M66.526,42.925 L66.614,42.925 C68.716,42.961 71.191,43.402 72.87,45.205 C73.983,46.39 74.743,48.156 74.796,50.789 L72.87,50.789 L66.614,50.807 L64.087,50.807 C63.929,52.168 64.971,54.2 66.614,54.43 C66.79,54.466 66.985,54.466 67.161,54.447 C68.575,54.501 69.583,53.794 69.972,52.716 L72.87,52.716 L74.515,52.716 C74.3,53.759 73.683,54.536 72.87,55.12 C70.909,56.516 67.868,56.71 66.88,56.71 L66.614,56.71 C62.143,56.498 59.403,55.049 58.22,51.143 L58.185,49.164 C59.14,43.42 64.987,42.908 66.526,42.925 L66.526,42.925 L66.526,42.925 Z M57.317,60.773 L57.23,60.633 L62.956,60.633 L66.136,66.2 L66.614,65.422 L69.511,60.598 L74.938,60.598 L72.87,64.114 L68.399,71.767 L63.628,71.767 L57.317,60.773 L57.317,60.773 Z M72.376,87.9 L71.12,87.9 L71.12,83.643 L74.638,83.643 L74.638,87.706 C74.515,88.891 74.019,90.021 72.87,90.481 C72.534,90.604 72.11,90.676 71.632,90.658 L71.632,88.891 C72.321,88.909 72.481,88.291 72.376,87.9 L72.376,87.9 L72.376,87.9 Z M69.423,76.644 L69.423,87.831 L63.609,87.831 L63.609,76.661 L66.614,76.644 L69.423,76.644 L69.423,76.644 Z M72.87,104.441 C71.228,105.326 68.894,105.432 66.808,105.625 L66.614,105.625 C61.595,105.645 58.079,104.441 57.583,101.279 C59.757,101.279 61.931,101.297 64.087,101.314 C64.476,102.959 64.741,103.398 66.614,103.383 C67.567,103.453 68.981,103.029 68.698,101.74 C68.61,100.75 67.532,100.484 66.614,100.359 C66.261,100.326 65.925,100.309 65.677,100.272 C61.259,99.9 58.22,99.441 57.742,96.225 C57.937,92.567 63.079,91.383 66.401,91.507 L66.614,91.507 C69.83,91.523 71.739,92.036 72.87,92.761 C74.089,93.537 74.425,94.545 74.515,95.393 L72.87,95.412 L68.964,95.429 C69.087,94.052 68.044,93.433 66.614,93.291 C66.489,93.273 66.366,93.273 66.243,93.273 C64.882,93.273 64.017,93.962 64.034,94.934 C64.528,95.943 65.165,96.154 66.614,96.262 C66.808,96.277 67.003,96.297 67.214,96.313 C69.937,96.455 71.703,96.879 72.87,97.463 C74.442,98.258 74.901,99.336 75.044,100.467 C75.062,102.568 74.177,103.754 72.87,104.441 L72.87,104.441 L72.87,104.441 Z M66.614,48.74 L69.247,48.757 C69.265,47.345 68.929,45.17 66.614,45.259 L66.579,45.259 C64.882,45.241 63.944,47.309 64.069,48.722 L66.614,48.74" id="Fill-2" fill="#FFFFFF" sketch:type="MSShapeGroup"></path>
        </g>
    </g>
</svg>