<?xml version="1.0" encoding="UTF-8" standalone="no"?>
<svg width="133px" height="133px" viewBox="0 0 133 133" version="1.1" xmlns="http://www.w3.org/2000/svg" xmlns:xlink="http://www.w3.org/1999/xlink" xmlns:sketch="http://www.bohemiancoding.com/sketch/ns">
    <!-- Generator: Sketch 3.1.1 (8761) - http://www.bohemiancoding.com/sketch -->
    <title>brand-hermes</title>
    <desc>Created with Sketch.</desc>
    <defs></defs>
    <g id="Page-1" stroke="none" stroke-width="1" fill="none" fill-rule="evenodd" sketch:type="MSPage">
        <g id="Imported-Layers" sketch:type="MSLayerGroup" fill="#FFFFFF">
            <path d="M13.547,64.967 L19.878,64.967 L19.878,67.27 L17.922,67.27 L17.922,71.127 L25.059,71.127 L25.059,67.27 L23.044,67.27 L23.044,64.967 L29.49,64.967 L29.49,67.27 L27.418,67.27 L27.418,78.609 L29.49,78.609 L29.49,80.852 L23.044,80.852 L23.044,78.609 L25.059,78.609 L25.059,73.369 L17.922,73.369 L17.922,78.609 L19.878,78.609 L19.878,80.852 L13.547,80.852 L13.547,78.609 L15.563,78.609 L15.563,67.27 L13.547,67.27 L13.547,64.967" id="Fill-2" sketch:type="MSShapeGroup"></path>
            <path d="M89.289,64.967 L102.297,64.967 L102.297,69.398 L100.111,69.398 L100.111,67.27 L93.779,67.27 L93.779,71.068 L99.19,71.068 L99.19,73.312 L93.779,73.312 L93.779,78.609 L100.053,78.609 L100.053,75.558 L102.356,75.558 L102.356,80.852 L89.289,80.852 L89.289,78.609 L91.42,78.609 L91.42,67.27 L89.289,67.27 L89.289,64.967" id="Fill-3" sketch:type="MSShapeGroup"></path>
            <path d="M32.426,64.967 L45.49,64.967 L45.49,69.398 L43.246,69.398 L43.246,67.27 L36.914,67.27 L36.914,71.068 L42.324,71.068 L42.324,73.312 L36.914,73.312 L36.914,78.609 L43.189,78.609 L43.189,75.558 L45.49,75.558 L45.49,80.852 L32.426,80.852 L32.426,78.609 L34.555,78.609 L34.555,67.27 L32.426,67.27 L32.426,64.967" id="Fill-4" sketch:type="MSShapeGroup"></path>
            <path d="M93.089,62.838 L97.75,62.838 L98.902,64.219 L94.355,64.219 L93.089,62.838" id="Fill-5" sketch:type="MSShapeGroup"></path>
            <path d="M115.074,71.76 C113.463,71.355 112.369,71.414 110.701,70.896 C109.262,70.377 108.975,69.514 108.975,68.939 C108.975,68.305 109.607,66.752 111.908,66.752 C114.211,66.752 115.766,68.305 115.822,69.629 L118.068,69.629 L118.068,64.967 L115.881,64.967 L115.881,66.002 L115.996,66.291 L115.996,66.35 L115.996,66.291 C115.938,66.291 115.881,66.117 115.65,65.945 C115.65,65.945 115.65,65.945 115.65,65.889 C115.018,65.313 113.693,64.621 111.736,64.621 C109.377,64.621 106.615,66.117 106.615,68.939 C106.615,71.701 108.57,72.623 110.297,73.082 C111.967,73.543 112.83,73.543 114.269,73.945 C115.65,74.291 116.572,75.154 116.572,76.422 C116.572,77.572 115.822,79.127 112.83,79.127 C109.895,79.127 108.685,77.514 108.342,75.269 L106.211,75.269 L106.211,80.852 L108.398,80.852 L108.398,79.816 L108.342,79.529 C108.342,79.529 108.398,79.701 108.685,79.873 L108.685,79.932 C109.779,80.795 111.275,81.371 113.117,81.371 C115.248,81.371 118.873,80.277 118.873,76.478 C118.873,73.715 117.435,72.449 115.074,71.76" id="Fill-6" sketch:type="MSShapeGroup"></path>
            <path d="M84.168,78.609 L84.168,67.27 L86.297,67.27 L86.297,64.967 L80.541,64.967 L76.686,74.291 L76.629,74.752 L76.513,74.291 L72.713,64.967 L66.9,64.967 L66.9,67.27 L69.029,67.27 L69.029,78.609 L66.9,78.609 L66.9,80.852 L73.404,80.852 L73.404,78.609 L71.39,78.609 L71.39,67.5 L71.563,68.02 L75.994,78.609 L77.26,78.609 L81.693,68.02 L81.809,67.443 L81.865,68.076 L81.865,78.609 L79.852,78.609 L79.852,80.852 L86.297,80.852 L86.297,78.609 L84.168,78.609" id="Fill-7" sketch:type="MSShapeGroup"></path>
            <path d="M37.777,58.867 L35.59,58.867 L35.59,58.291 L37.203,58.291 C37.26,58.406 37.606,58.693 37.777,58.867" id="Fill-8" sketch:type="MSShapeGroup"></path>
            <path d="M92.744,58.867 C92.744,58.635 92.973,58.406 93.262,58.291 L94.412,58.291 L94.412,58.867 L92.744,58.867" id="Fill-9" sketch:type="MSShapeGroup"></path>
            <path d="M56.599,59.269 C55.619,59.73 54.412,59.672 53.434,59.269 L41.979,59.269 C40.887,59.73 39.619,59.73 38.527,59.269 L35.59,59.269 L35.59,60.361 L94.412,60.361 L94.412,59.269 L56.599,59.269" id="Fill-10" sketch:type="MSShapeGroup"></path>
            <path d="M42.67,58.867 C42.844,58.75 43.246,58.348 43.303,58.291 L52.167,58.291 C52.281,58.463 52.57,58.75 52.742,58.867 L42.67,58.867" id="Fill-11" sketch:type="MSShapeGroup"></path>
            <path d="M55.045,58.521 C56.541,58.521 57.807,57.254 57.807,55.758 C57.807,54.205 56.541,52.938 55.045,52.938 C53.49,52.938 52.225,54.205 52.225,55.758 C52.225,57.254 53.49,58.521 55.045,58.521 L55.045,59.096 C53.144,59.096 51.648,57.599 51.648,55.758 C51.648,53.859 53.144,52.363 55.045,52.363 C56.887,52.363 58.383,53.859 58.383,55.758 C58.383,57.599 56.887,59.096 55.045,59.096 L55.045,58.521" id="Fill-12" sketch:type="MSShapeGroup"></path>
            <path d="M44.051,55.299 C44.051,53.226 42.324,51.5 40.253,51.5 C38.123,51.5 36.455,53.226 36.455,55.299 C36.455,57.428 38.123,59.096 40.253,59.096 C42.324,59.096 44.051,57.428 44.051,55.299 L43.418,55.299 C43.418,57.082 41.979,58.521 40.253,58.521 C38.469,58.521 37.029,57.082 37.029,55.299 C37.029,53.514 38.469,52.133 40.253,52.133 C41.979,52.133 43.418,53.514 43.418,55.299 L44.051,55.299" id="Fill-13" sketch:type="MSShapeGroup"></path>
            <path d="M56.828,57.658 L55.678,56.334 L55.678,56.275 C55.734,56.219 55.734,56.16 55.793,56.103 L57.519,56.564 C57.576,56.564 57.691,56.621 57.691,56.68 C57.691,56.621 57.75,56.392 57.807,56.275 C57.75,56.334 57.635,56.334 57.519,56.334 L55.908,55.873 C55.851,55.873 55.851,55.816 55.851,55.816 L55.851,55.586 L55.851,55.527 L57.519,54.895 C57.519,54.895 57.691,54.895 57.691,54.951 C57.691,54.895 57.576,54.607 57.576,54.549 C57.576,54.607 57.462,54.722 57.404,54.722 L57.519,54.664 L55.793,55.299 C55.793,55.355 55.793,55.299 55.734,55.299 C55.734,55.24 55.678,55.184 55.619,55.184 C55.619,55.125 55.563,55.066 55.619,55.066 L56.541,53.629 C56.599,53.57 56.713,53.514 56.771,53.514 C56.713,53.514 56.484,53.342 56.368,53.283 C56.426,53.283 56.426,53.455 56.368,53.514 L55.447,54.951 L55.332,54.951 C55.332,54.951 55.217,54.895 55.16,54.895 C55.16,54.895 55.102,54.895 55.102,54.838 L55.045,53.168 C55.045,53.053 55.045,52.938 55.16,52.938 L54.699,52.938 C54.757,52.938 54.815,53.111 54.815,53.168 L54.872,54.838 C54.872,54.895 54.815,54.895 54.815,54.895 C54.815,54.895 54.699,54.951 54.641,55.01 C54.641,55.009 54.584,55.01 54.584,54.951 L53.49,53.629 C53.434,53.57 53.434,53.455 53.434,53.398 C53.375,53.455 53.144,53.629 53.088,53.687 C53.144,53.687 53.26,53.744 53.318,53.801 L54.412,55.125 L54.412,55.184 C54.354,55.184 54.297,55.299 54.297,55.355 C54.297,55.355 54.238,55.412 54.182,55.412 L52.57,54.951 C52.455,54.895 52.397,54.838 52.397,54.779 C52.397,54.838 52.281,55.125 52.281,55.184 C52.281,55.184 52.455,55.125 52.512,55.184 L54.123,55.586 C54.182,55.586 54.182,55.642 54.182,55.642 L54.182,55.873 L54.182,55.932 L52.57,56.621 C52.512,56.621 52.397,56.68 52.397,56.621 C52.397,56.68 52.455,56.91 52.512,57.025 C52.512,56.967 52.627,56.852 52.685,56.852 L54.238,56.16 C54.297,56.16 54.297,56.219 54.297,56.219 C54.354,56.219 54.412,56.275 54.412,56.334 C54.469,56.334 54.469,56.392 54.469,56.392 L53.49,57.83 C53.434,57.889 53.375,57.945 53.318,57.945 C53.375,58.002 53.606,58.176 53.663,58.176 C53.606,58.176 53.663,58.002 53.663,57.945 L54.641,56.564 C54.641,56.506 54.699,56.506 54.699,56.506 C54.757,56.564 54.815,56.564 54.872,56.564 C54.93,56.564 54.93,56.564 54.93,56.621 L55.045,58.348 C55.045,58.406 54.986,58.521 54.93,58.521 L55.391,58.521 C55.275,58.521 55.275,58.406 55.275,58.291 L55.16,56.621 C55.16,56.564 55.217,56.564 55.217,56.564 C55.275,56.564 55.391,56.506 55.447,56.449 C55.447,56.449 55.506,56.449 55.506,56.506 L56.656,57.771 C56.656,57.83 56.713,57.945 56.713,58.002 C56.771,57.945 56.943,57.771 57.002,57.715 C56.943,57.771 56.828,57.658 56.828,57.658" id="Fill-14" sketch:type="MSShapeGroup"></path>
            <path d="M40.139,53.111 C41.75,53.111 43.361,53.283 44.281,53.57 C44.396,53.57 44.396,53.687 44.281,53.744 C43.303,53.975 41.691,54.146 40.195,54.146 C38.699,54.205 37.088,54.146 36.051,53.916 C35.935,53.916 35.935,53.801 36.051,53.801 C36.973,53.455 38.527,53.168 40.139,53.111 L40.139,52.822 C38.411,52.881 36.684,53.283 35.245,53.801 C35.072,53.859 35.072,53.975 35.245,53.975 C36.857,54.377 38.527,54.434 40.195,54.377 C41.807,54.32 43.533,54.205 45.088,53.744 C45.317,53.687 45.26,53.57 45.144,53.57 C43.648,53.111 41.922,52.822 40.139,52.822 L40.139,53.111" id="Fill-15" sketch:type="MSShapeGroup"></path>
            <path d="M57.232,52.074 C56.828,52.189 56.139,52.42 55.793,52.42 C55.506,52.42 54.066,52.363 53.088,52.42 C51.764,52.476 51.648,52.65 51.591,52.535 C51.303,52.074 51.073,51.383 50.613,50.98 C47.907,51.441 45.26,51.039 42.844,50.176 L42.844,49.83 C43.016,49.889 43.131,49.889 43.246,49.889 C42.844,49.312 42.152,49.141 41.75,48.506 C41.519,48.334 41.461,47.988 41.231,47.816 C41.289,48.449 40.772,48.91 40.713,49.428 C41.059,49.543 41.519,49.543 41.691,49.484 C41.922,49.428 42.211,49.484 42.324,49.658 C42.498,49.715 42.611,49.83 42.844,49.83 L42.844,50.176 C42.555,50.117 42.498,50.061 42.268,49.945 C41.979,50.061 41.75,50.004 41.635,49.889 C41.576,49.83 41.001,49.83 40.772,49.83 C40.023,49.83 39.217,50.117 38.815,50.75 C38.641,51.096 38.699,51.5 38.871,51.787 C38.986,51.959 39.505,52.707 39.85,52.938 L39.389,53.053 C38.699,52.42 38.182,51.844 38.295,51.096 C38.641,49.484 40.139,49.715 40.541,49.023 C40.828,48.391 40.943,46.549 40.598,46.031 C39.619,45.629 38.411,45.111 38.182,43.959 C38.123,43.672 38.238,43.326 38.527,43.267 C39.045,43.154 39.389,43.441 39.793,43.615 C39.965,43.498 39.619,43.096 40.023,43.096 C40.541,43.096 40.887,44.133 41.059,44.189 L41.001,44.592 C40.656,44.477 39.389,43.787 39.273,43.728 C39.045,43.615 38.756,43.441 38.584,43.672 C38.354,43.959 38.641,44.305 38.815,44.592 C41.519,47.412 46.008,44.42 48.943,46.434 C49.001,46.262 48.943,46.205 48.828,46.146 C46.815,44.248 43.59,45.227 41.001,44.592 L41.059,44.189 C44.281,44.996 48.541,43.672 50.211,47.355 C51.303,48.91 52.455,51.383 54.815,51.441 C56.713,51.5 57.981,50.75 58.9,49.369 C60.168,47.068 60.916,44.42 63.16,42.865 C63.391,42.75 63.506,42.865 63.391,42.924 C62.297,44.016 61.318,45.455 60.801,46.664 C61.663,49.945 63.563,49.254 64.023,49.197 C63.908,47.988 64.023,44.42 66.613,43.557 C67.188,43.096 69.262,41.773 71.966,42.924 C69.951,44.822 68.744,47.527 68.34,49.428 L66.096,50.061 C66.268,49.715 66.268,49.141 66.211,48.506 C65.981,48.621 65.75,48.793 65.232,49.082 C65.002,49.141 65.174,48.793 65.174,48.793 C65.174,48.68 65.75,48.449 66.211,48.16 C66.037,46.838 65.922,45.111 67.016,44.016 C64.772,44.766 65.404,49.484 65.635,50.061 C65.002,50.348 64.139,50.348 64.139,50.348 L64.023,49.543 C63.045,49.889 61.375,49.658 60.627,47.068 C59.822,48.736 59.131,51.383 57.232,52.074" id="Fill-16" sketch:type="MSShapeGroup"></path>
            <path d="M92.34,45.053 C92.227,44.937 92.168,44.881 92.053,44.881 C91.994,44.822 92.053,44.766 92.11,44.766 C92.168,44.707 92.283,44.766 92.34,44.881 C92.398,44.937 92.398,45.053 92.34,45.053" id="Fill-17" sketch:type="MSShapeGroup"></path>
            <path d="M40.828,56.16 L42.037,57.543 C42.152,57.658 42.152,57.83 42.095,57.889 C42.268,57.83 42.498,57.543 42.611,57.428 C42.555,57.484 42.324,57.484 42.268,57.371 L41.001,55.988 L41.001,55.873 C41.001,55.873 41.001,55.873 41.059,55.816 C41.059,55.758 41.116,55.758 41.116,55.758 L42.9,56.392 C43.072,56.506 43.131,56.621 43.131,56.68 C43.189,56.564 43.303,56.219 43.361,56.103 C43.303,56.16 43.131,56.219 43.016,56.16 L41.231,55.527 C41.174,55.527 41.174,55.527 41.174,55.471 L41.174,55.355 C41.174,55.299 41.231,55.299 41.231,55.299 L43.072,55.01 C43.303,54.951 43.418,55.066 43.418,55.125 C43.418,55.01 43.361,54.607 43.361,54.492 C43.361,54.549 43.246,54.722 43.016,54.779 L41.231,55.066 C41.174,55.066 41.174,55.01 41.174,55.01 C41.116,54.951 41.116,54.895 41.059,54.838 L41.059,54.779 L42.498,53.57 C42.67,53.455 42.844,53.455 42.9,53.514 C42.785,53.398 42.555,53.111 42.44,52.996 C42.498,53.053 42.44,53.226 42.324,53.398 L40.943,54.549 C40.887,54.607 40.887,54.607 40.887,54.549 C40.828,54.549 40.772,54.549 40.713,54.492 C40.713,54.492 40.656,54.434 40.713,54.434 L41.346,52.65 C41.404,52.476 41.576,52.42 41.635,52.42 C41.519,52.363 41.116,52.189 41.001,52.189 C41.059,52.189 41.174,52.42 41.116,52.592 L40.482,54.32 C40.482,54.377 40.426,54.377 40.426,54.377 L40.253,54.377 L40.195,54.32 L39.85,52.476 C39.85,52.248 39.965,52.133 39.965,52.133 C39.85,52.133 39.505,52.189 39.332,52.248 C39.389,52.248 39.562,52.363 39.619,52.535 L39.965,54.32 C39.965,54.377 39.965,54.377 39.907,54.434 C39.85,54.434 39.793,54.492 39.734,54.492 L39.678,54.492 L38.411,53.111 C38.295,52.938 38.295,52.765 38.354,52.765 C38.238,52.822 37.951,53.053 37.893,53.168 C37.951,53.168 38.123,53.168 38.238,53.283 L39.505,54.664 L39.505,54.722 C39.447,54.779 39.447,54.779 39.389,54.838 C39.389,54.838 39.389,54.838 39.332,54.838 L37.606,54.205 C37.434,54.146 37.317,53.975 37.375,53.916 C37.26,54.09 37.203,54.434 37.145,54.549 C37.203,54.492 37.375,54.434 37.548,54.492 L39.273,55.066 L39.273,55.125 L39.273,55.299 L39.273,55.355 L37.434,55.701 C37.26,55.701 37.088,55.586 37.088,55.527 C37.088,55.701 37.145,56.103 37.203,56.219 C37.203,56.16 37.26,55.988 37.49,55.932 L39.273,55.586 C39.273,55.586 39.332,55.586 39.332,55.642 C39.332,55.701 39.332,55.701 39.389,55.758 L39.389,55.816 L37.951,56.967 C37.777,57.139 37.606,57.082 37.606,57.025 C37.606,57.197 37.893,57.484 37.951,57.543 C37.951,57.484 37.951,57.312 38.066,57.197 L39.562,56.047 C39.562,55.988 39.562,55.988 39.619,56.047 C39.619,56.046 39.678,56.103 39.734,56.16 C39.793,56.16 39.793,56.16 39.793,56.219 L39.16,57.945 C39.102,58.117 38.929,58.232 38.871,58.176 C38.986,58.232 39.332,58.406 39.505,58.406 C39.389,58.406 39.332,58.232 39.389,58.06 L40.023,56.275 C40.023,56.275 40.023,56.219 40.08,56.219 C40.139,56.275 40.195,56.275 40.253,56.275 C40.253,56.275 40.311,56.275 40.311,56.334 L40.656,58.117 C40.656,58.348 40.541,58.463 40.482,58.521 C40.656,58.521 41.001,58.406 41.116,58.348 C41.059,58.406 40.887,58.232 40.887,58.117 L40.541,56.275 L40.541,56.219 C40.598,56.219 40.656,56.16 40.713,56.16 C40.772,56.103 40.772,56.103 40.828,56.16" id="Fill-18" sketch:type="MSShapeGroup"></path>
            <path d="M91.535,45.283 C91.477,45.227 91.535,45.168 91.535,45.111 C91.592,44.937 91.65,44.937 91.65,44.766 C91.361,44.535 91.305,44.074 91.477,43.959 C91.65,43.787 92.227,44.016 92.227,44.016 C92.744,43.615 92.916,43.326 93.204,43.154 C93.606,43.154 94.412,43.9 94.412,44.361 C94.297,44.535 94.01,44.822 93.549,45.398 C93.723,45.801 93.723,46.088 93.434,46.32 C93.377,46.32 93.262,46.32 93.146,46.205 C93.204,46.779 93.836,47.125 94.066,47.584 C94.066,48.506 95.046,49.658 93.951,50.406 C93.723,50.521 93.49,50.693 93.377,50.924 C93.549,51.844 93.895,52.822 94.066,53.801 L92.973,53.859 C92.859,54.205 92.514,54.838 92.628,55.184 C92.628,55.184 92.57,55.125 92.687,55.184 C92.859,55.412 92.916,57.312 92.859,57.484 C92.859,57.715 93.031,57.715 92.916,58.117 C92.801,58.176 92.34,58.463 92.283,58.635 C91.994,58.924 91.19,58.98 91.19,58.867 C91.19,58.578 91.766,58.232 91.881,57.889 C91.994,56.506 91.881,55.125 91.131,54.031 C90.844,53.859 90.613,54.32 90.441,54.549 C90.729,55.412 91.247,56.334 91.19,57.312 C91.19,57.599 91.535,58.002 91.361,58.406 L90.441,58.867 L87.104,58.867 C86.988,58.693 86.758,58.521 86.815,58.291 L89.807,58.291 C89.807,58.176 90.096,58.232 90.383,57.771 C90.383,56.392 88.944,54.377 89.176,53.687 C89.463,52.822 89.865,52.133 90.326,50.98 L90.557,50.924 C90.039,52.65 89.289,53.514 89.404,54.031 C89.463,54.32 89.578,54.549 89.75,54.895 L89.865,55.24 C89.923,55.412 90.096,55.816 90.211,55.932 C90.383,55.932 90.498,55.816 90.613,55.758 C90.613,55.527 90.441,55.24 90.326,55.066 L89.865,55.24 L89.75,54.895 C90.096,54.895 90.326,54.664 90.039,54.492 C90.844,54.09 89.865,54.205 90.152,54.031 C90.613,53.801 90.844,52.938 90.902,52.42 C90.902,52.305 90.959,52.248 91.074,52.248 C91.42,53.168 91.42,54.377 91.994,55.24 L91.994,55.527 C91.938,55.758 91.994,56.047 92.11,56.219 C92.628,56.275 92.57,56.16 92.455,55.527 C92.34,55.527 92.11,55.471 91.994,55.527 L91.994,55.24 C92.053,55.184 92.283,55.24 92.34,55.184 C92.168,54.895 92.168,54.664 92.168,54.377 C92.168,54.205 92.283,53.859 92.398,54.607 C92.57,54.664 92.859,53.283 92.916,52.822 C91.822,53.053 92.916,51.787 92.11,51.728 L92.514,51.039 C92.514,50.808 92.34,50.635 92.053,50.75 L91.822,50.463 C91.65,50.406 91.477,50.117 91.247,49.945 C91.074,50.117 90.786,50.463 90.729,50.693 C90.672,50.75 90.844,50.808 90.902,50.75 C91.074,50.578 91.19,50.924 91.477,50.865 C91.592,50.75 91.938,50.693 91.822,50.463 L92.053,50.75 C91.822,50.865 91.822,51.268 91.822,51.557 C91.42,52.305 91.592,51.154 91.131,51.154 C90.844,51.326 90.729,50.865 90.557,50.924 L90.326,50.98 C90.326,50.578 90.383,50.117 90.326,49.658 C90.672,47.699 91.074,47.758 91.131,47.181 C91.131,46.953 91.994,46.492 91.938,46.262 C91.994,46.262 92.11,46.434 92.11,46.492 C92.053,46.779 91.477,46.779 91.535,47.412 C91.881,46.779 92.859,46.838 92.916,46.088 C92.744,45.629 93.146,45.916 93.146,45.455 C93.031,45.34 92.687,44.996 92.628,44.822 C92.57,44.766 92.801,44.42 91.994,44.42 C91.938,44.477 91.881,44.822 91.766,44.996 C91.707,45.053 91.592,45.168 91.65,45.227 C91.65,45.283 91.766,45.34 91.766,45.57 C91.707,45.801 91.766,45.916 91.881,46.031 C92.34,46.262 92.687,46.031 92.168,46.32 C92.168,46.377 92.168,46.434 92.11,46.492 C92.11,46.434 91.938,46.205 91.881,46.146 C91.822,46.146 91.535,45.974 91.592,45.744 C91.65,45.514 91.65,45.398 91.535,45.283" id="Fill-19" sketch:type="MSShapeGroup"></path>
            <path d="M76.053,43.096 C76.109,43.498 75.879,43.787 75.879,44.189 C76.283,45.168 75.879,45.916 75.994,46.838 C75.533,46.549 75.418,45.801 75.246,44.996 C75.132,44.305 75.305,44.074 75.361,43.326 L76.053,43.096" id="Fill-20" sketch:type="MSShapeGroup"></path>
            <path d="M74.844,43.383 C74.787,44.592 74.613,45.168 75.477,47.068 C73.289,47.988 71.506,48.621 68.916,49.369 C69.203,47.527 70.986,44.016 72.484,43.039 C73.75,43.383 74.844,43.383 74.844,43.383" id="Fill-21" sketch:type="MSShapeGroup"></path>
            <path d="M69.203,56.91 C68.627,57.082 68.627,57.428 68.973,57.771 C69.203,57.945 69.434,58.232 69.434,58.291 L65.75,58.291 C65.75,58.463 65.922,58.578 66.037,58.867 L86.412,58.867 C86.527,58.578 86.182,58.232 86.066,57.889 C84.627,57.371 84.627,56.047 84.57,54.549 C84.57,54.492 84.455,54.32 84.455,54.031 C84.283,53.801 83.305,51.441 83.764,49.543 L84.109,48.91 C84.398,48.506 84.053,48.275 84.283,47.816 L88.543,47.01 C88.6,46.953 88.6,46.779 88.484,46.723 C88.484,46.664 88.543,46.723 88.484,46.723 L84.34,47.471 C84.57,46.434 83.65,46.088 84.053,45.227 C84.627,45.859 86.182,46.953 86.988,47.125 L87.391,47.068 C86.356,46.607 84.514,45.514 83.477,44.074 C83.361,44.074 83.246,43.959 83.132,43.9 C83.132,44.016 83.42,44.361 83.361,44.42 C83.361,44.42 82.672,44.881 81.404,44.305 C81.002,45.111 76.513,47.125 76.513,47.125 C76.686,48.391 77.26,49.197 77.894,49.889 C77.953,50.004 77.721,49.771 77.894,49.889 C78.815,50.635 79.908,50.98 81.117,51.211 C81.348,51.902 82.211,54.146 82.268,54.492 C82.383,54.838 82.556,54.838 82.556,54.838 C82.672,54.951 83.074,55.701 83.074,55.988 L83.19,57.197 C83.246,57.484 83.592,57.254 83.65,57.543 L83.477,58.291 L84.34,58.291 C83.88,57.889 84.168,57.197 83.592,56.91 C83.535,56.219 83.477,55.701 83.19,55.412 C82.959,54.722 82.211,52.881 81.75,51.211 L82.038,50.808 C80.771,51.154 79.793,50.693 78.643,50.061 C77.779,49.658 78.297,50.004 78.584,49.83 C79.967,50.463 80.656,50.291 81.693,50.176 C81.809,50.348 82.038,50.521 82.038,50.808 L81.75,51.211 C82.038,50.924 82.268,51.096 82.44,51.902 C82.672,52.592 82.9,53.111 83.074,53.687 C83.305,54.262 83.477,55.01 83.65,55.412 C83.65,55.412 83.822,55.412 83.938,55.642 C84.34,56.91 84.455,57.082 84.398,57.658 C84.514,58.117 85.147,57.715 85.088,58.291 L69.951,58.291 C70.182,57.371 69.664,56.564 69.951,55.701 C69.375,54.779 67.938,54.09 68.166,52.822 C68.857,51.844 71.104,50.865 70.586,49.715 C72.656,48.68 73.693,50.406 75.592,50.232 C76.283,50.232 77.031,50.117 77.664,49.945 C76.857,49.312 76.168,48.334 75.765,47.471 C71.734,49.141 67.822,50.463 63.506,51.326 L63.16,51.211 C62.757,51.268 56.195,52.765 56.426,53.053 C53.951,53.226 51.073,54.262 50.44,54.607 C50.152,54.779 50.095,54.895 50.44,55.01 C53.088,55.701 55.275,55.184 59.361,53.629 L59.073,53.398 C58.844,53.57 55.506,54.722 54.182,54.895 C52.801,55.066 51.591,55.01 51.016,54.838 C50.844,54.779 50.844,54.779 50.957,54.722 C53.549,53.687 58.556,52.765 59.246,53.629 C59.648,53.744 59.938,53.975 60.168,54.262 C60.397,54.549 60.857,54.434 61.203,54.377 C61.663,54.262 61.721,53.859 61.721,53.455 L61.203,53.398 C60.973,53.398 60.052,53.514 59.938,53.629 C59.592,53.342 59.246,53.053 58.785,52.938 C59.707,52.535 61.203,52.189 62.008,52.133 C61.26,52.65 61.606,53.283 61.203,53.398 L61.721,53.455 C61.721,53.226 61.721,53.053 61.836,52.938 C62.354,51.672 64.541,51.5 65.635,51.211 C65.635,51.211 65.059,51.959 64.656,52.133 C64.541,53.916 63.908,55.471 63.793,57.254 C64.311,57.254 64.311,57.83 64.426,58.176 C64.254,58.463 64.023,58.176 63.793,58.232 C62.986,57.83 63.965,57.139 63.332,56.564 C63.678,55.125 64.195,53.687 64.195,52.189 C63.965,52.189 63.908,52.42 63.793,52.592 C63.621,54.031 63.218,55.355 62.873,56.68 C62.986,56.795 63.275,56.91 63.275,57.139 C62.815,57.428 63.275,57.945 63.102,58.291 L57.865,58.291 L57.346,58.867 L65.289,58.867 L65.347,58.578 C64.195,57.312 64.6,55.471 65.174,54.09 L66.557,52.248 C67.707,51.787 68.398,50.406 69.606,49.945 C69.606,50.578 68.857,50.808 68.455,51.154 C67.994,52.133 66.67,52.248 66.498,53.342 C67.016,53.916 67.764,54.32 68.398,54.838 C69.029,55.24 68.857,56.103 69.318,56.506 C69.434,56.621 69.318,56.852 69.203,56.91" id="Fill-22" sketch:type="MSShapeGroup"></path>
            <path d="M78.01,36.133 C77.779,36.476 77.318,36.707 77.607,37.34 C77.031,37.686 77.203,38.203 77.377,38.492 C77.088,38.779 76.916,39.355 77.318,39.701 C76.857,40.219 77.434,40.678 77.607,40.851 C77.377,41.369 77.607,41.773 77.607,41.773 C77.549,42.117 76.916,42.693 76.686,42.865 C76.34,43.728 76.455,45.514 76.513,46.723 C78.125,45.916 79.736,45.168 81.002,44.074 C79.908,43.326 79.045,41.543 77.836,41.656 C77.721,40.39 77.203,38.146 78.988,35.844 C79.217,35.729 79.563,35.672 79.736,35.556 C78.988,35.441 78.01,35.902 77.318,35.498 C77.318,35.498 77.664,36.074 78.01,36.133" id="Fill-23" sketch:type="MSShapeGroup"></path>
            <path d="M81.865,35.556 C81.865,35.613 82.096,35.729 82.096,35.729 C82.096,35.729 82.326,35.672 82.326,35.613 C82.326,35.556 82.383,35.383 82.326,35.326 C82.268,35.326 82.096,35.269 81.981,35.269 C81.981,35.269 81.865,35.498 81.865,35.556 L81.75,35.672 L80.943,35.096 L81.061,34.98 C81.061,34.98 81.404,34.635 81.578,34.635 C81.75,34.578 82.672,34.635 82.9,34.809 C83.074,34.98 83.19,35.096 83.42,35.498 C84.053,35.959 85.088,35.959 85.722,36.476 C85.606,36.65 85.895,36.937 85.664,37.053 C85.492,37.109 85.088,36.994 85.031,37.109 L84.973,37.455 L84.743,37.398 C84.743,37.398 84.859,36.994 84.743,36.994 C84.627,36.937 84.398,36.822 84.283,36.881 C84.225,36.937 84.283,36.994 84.34,37.109 C84.34,37.226 84.627,37.283 84.801,37.226 L85.031,37.283 L85.319,37.34 C85.204,37.629 85.147,37.744 84.743,37.629 C84.627,37.916 85.262,38.146 85.319,38.262 C85.262,38.377 85.147,38.492 84.743,38.262 C84.743,38.262 83.074,39.873 82.096,40.334 C81.061,40.793 82.038,40.103 82.038,40.103 C82.498,39.932 84.514,38.203 84.514,38.031 C84.455,37.916 84.34,37.686 84.34,37.512 C84.053,37.398 83.477,37.57 83.246,37.744 C83.361,38.262 84.283,40.851 83.592,44.766 L83.477,44.65 C84.109,40.851 83.074,37.801 83.074,37.801 C82.498,38.031 82.096,37.859 81.809,37.916 C81.693,40.275 83.592,40.621 82.9,43.728 C80.887,43.383 79.448,40.91 78.297,41.139 C78.238,40.736 77.836,40.045 78.238,39.814 C78.125,39.471 78.01,39.01 78.527,38.721 C78.354,38.262 78.297,37.859 78.815,37.512 C78.699,37.226 78.757,36.592 79.391,36.476 C79.448,35.959 79.678,35.556 80.139,35.383 C79.621,35.154 79.506,34.635 79.506,34.635 C79.967,34.924 80.369,35.096 81.061,34.98 L81.865,35.556" id="Fill-24" sketch:type="MSShapeGroup"></path>
            <path d="M62.297,78.609 L62.238,75.385 C62.238,74.406 61.606,73.369 60.742,72.795 C60.57,72.738 60.281,72.623 60.052,72.623 C60.281,72.623 60.57,72.623 60.857,72.506 C61.721,72.104 62.757,71.01 62.757,69.111 C62.757,67.672 62.182,66.578 61.146,65.83 C60.168,65.139 59.073,64.967 57.922,64.967 L49.059,64.967 L49.059,67.27 L51.073,67.27 L51.073,78.609 L49.059,78.609 L49.059,80.852 L55.391,80.852 L55.391,78.609 L53.375,78.609 L53.375,73.6 L57.75,73.6 C59.246,73.658 59.822,74.637 59.822,75.443 L59.994,80.852 L64.311,80.852 L64.311,78.609 L62.297,78.609 L62.297,78.609 Z M58.21,71.414 L53.375,71.414 L53.375,67.27 L57.922,67.27 C58.44,67.27 59.016,67.27 59.477,67.443 C60.052,67.73 60.57,68.363 60.57,69.34 C60.57,70.551 59.477,71.414 58.21,71.414 L58.21,71.414 Z" id="Fill-25" sketch:type="MSShapeGroup"></path>
            <path d="M48.252,86.494 C50.324,86.494 51.246,87.644 51.246,89.084 C51.246,90.521 50.268,91.615 48.08,91.615 L46.584,91.615 L46.584,95.586 L45.26,95.586 L45.26,86.494 L48.252,86.494 L48.252,86.494 Z M46.584,90.463 L48.195,90.463 C49.174,90.463 49.865,89.945 49.865,89.025 C49.865,88.334 49.462,87.644 48.252,87.644 L46.584,87.644 L46.584,90.463 L46.584,90.463 Z" id="Fill-26" sketch:type="MSShapeGroup"></path>
            <path d="M61.549,95.586 L60.109,95.586 L58.959,92.883 L54.986,92.883 L53.894,95.586 L52.455,95.586 L56.484,86.436 L57.404,86.436 L61.549,95.586 L61.549,95.586 Z M55.506,91.674 L58.44,91.674 L56.887,88.103 L55.506,91.674 L55.506,91.674 Z" id="Fill-27" sketch:type="MSShapeGroup"></path>
            <path d="M75.361,86.494 L76.685,86.494 L76.685,95.586 L75.361,95.586 L75.361,86.494 Z" id="Fill-28" sketch:type="MSShapeGroup"></path>
            <path d="M86.182,88.449 C85.319,87.76 84.514,87.529 83.822,87.529 C82.959,87.529 82.268,87.932 82.268,88.564 C82.268,90.35 86.527,90.291 86.527,93.227 C86.527,94.607 85.377,95.644 83.764,95.644 C82.729,95.644 81.809,95.414 81.002,94.838 L81.002,93.17 C81.75,94.033 82.672,94.494 83.65,94.494 C84.743,94.494 85.262,93.861 85.262,93.344 C85.262,91.5 80.943,91.27 80.943,88.797 C80.943,87.299 82.154,86.379 83.938,86.379 C84.743,86.379 85.434,86.551 86.182,87.012 L86.182,88.449" id="Fill-29" sketch:type="MSShapeGroup"></path>
            <path d="M71.104,94.494 C70.93,94.262 70.758,94.033 70.586,93.744 C69.894,92.594 69.318,91.787 68.455,91.27 C69.49,90.867 70.066,90.06 70.066,89.025 C70.066,87.473 68.857,86.494 66.9,86.494 L64.541,86.494 L64.541,95.586 L65.922,95.586 L65.922,91.615 L66.498,91.615 C67.188,91.615 67.764,91.846 68.973,93.687 L70.24,95.586 L71.793,95.586 L71.104,94.494 L71.104,94.494 Z M66.786,90.463 L65.922,90.463 L65.922,87.586 L66.786,87.586 C68.109,87.586 68.627,88.103 68.627,88.969 C68.686,89.717 68.283,90.463 66.786,90.463 L66.786,90.463 Z" id="Fill-30" sketch:type="MSShapeGroup"></path>
        </g>
    </g>
</svg>