<?xml version="1.0" encoding="UTF-8" standalone="no"?>
<svg width="125px" height="71px" viewBox="0 0 125 71" version="1.1" xmlns="http://www.w3.org/2000/svg" xmlns:xlink="http://www.w3.org/1999/xlink" xmlns:sketch="http://www.bohemiancoding.com/sketch/ns">
    <!-- Generator: Sketch 3.0.4 (8053) - http://www.bohemiancoding.com/sketch -->
    <title>Group</title>
    <desc>Created with Sketch.</desc>
    <defs></defs>
    <g id="Page-1" stroke="none" stroke-width="1" fill="none" fill-rule="evenodd" sketch:type="MSPage">
        <path d="M34.679,57.804 L22.638,57.645 L22.638,54.228 L23.32,54.228 C23.32,54.228 28.452,54.084 29.818,54.766 C31.185,55.449 34.679,57.804 34.679,57.804 L34.679,57.804 L34.679,57.804 Z M21.612,57.645 L12.389,57.302 L13.756,53.962 L21.612,54.228 L21.612,57.645 L21.612,57.645 Z M12.73,53.962 L11.363,57.302 L6.733,57.196 C6.733,57.196 8.746,56.058 9.771,55.374 C10.797,54.691 12.389,53.962 12.73,53.962 L12.73,53.962 L12.73,53.962 Z M49.285,63.794 L48.603,63.452 C48.603,63.452 48.603,64.135 48.261,62.427 C47.918,60.719 46.894,60.036 44.845,59.353 C42.795,58.669 37.328,57.986 37.328,57.986 C34.864,56.754 31.52,53.545 27.421,53.203 C23.32,52.861 7.342,52.944 7.342,52.944 L7.605,54.911 L4.53,56.961 L3.164,58.328 L2.48,61.744 L1.798,63.452 L2.48,66.186 L6.764,66.186 C7.071,64.102 8.852,62.496 11.022,62.496 C13.192,62.496 14.972,64.102 15.279,66.186 L34.317,66.186 C34.625,64.102 36.404,62.496 38.575,62.496 C40.745,62.496 42.525,64.102 42.833,66.186 L48.943,66.186 L49.285,63.794 Z M11.021,69.991 C12.77,69.991 14.194,68.568 14.194,66.819 C14.194,65.068 12.77,63.646 11.021,63.646 C9.273,63.646 7.85,65.068 7.85,66.819 C7.85,68.568 9.273,69.991 11.021,69.991 Z M38.575,69.991 C40.324,69.991 41.747,68.568 41.747,66.819 C41.747,65.068 40.324,63.646 38.575,63.646 C36.826,63.646 35.403,65.068 35.403,66.819 C35.403,68.568 36.826,69.991 38.575,69.991 Z" id="Fill-1" fill="#0000FF" sketch:type="MSShapeGroup"></path>
        <path d="M11.021,69.991 C12.77,69.991 14.194,68.568 14.194,66.819 C14.194,65.068 12.77,63.646 11.021,63.646 C9.273,63.646 7.85,65.068 7.85,66.819 C7.85,68.568 9.273,69.991 11.021,69.991 L11.021,69.991 L11.021,69.991 Z" id="Stroke-3" stroke="#FFFFFF" stroke-width="0.607" sketch:type="MSShapeGroup"></path>
        <path d="M38.575,69.991 C40.324,69.991 41.747,68.568 41.747,66.819 C41.747,65.068 40.324,63.646 38.575,63.646 C36.826,63.646 35.403,65.068 35.403,66.819 C35.403,68.568 36.826,69.991 38.575,69.991 L38.575,69.991 L38.575,69.991 Z" id="Stroke-5" stroke="#FFFFFF" stroke-width="0.607" sketch:type="MSShapeGroup"></path>
        <path d="M9.753,53.353 L10.346,51.73 L25.761,51.73 L27.539,53.759" id="Stroke-6" stroke="#0043F9" stroke-width="1.215" sketch:type="MSShapeGroup"></path>
        <path d="M48.678,69.954 L2.508,69.954" id="Stroke-7" stroke="#0043F9" stroke-width="0.607" sketch:type="MSShapeGroup"></path>
        <path d="M71.105,3.794 L80.105,3.794 L80.105,25.794 L71.105,25.794 L71.105,3.794 L71.105,3.794 Z M84.106,3.794 L93.105,3.794 L93.105,25.794 L84.106,25.794 L84.106,3.794 L84.106,3.794 Z M97.106,3.794 L106.106,3.794 L106.106,25.794 L97.106,25.794 L97.106,3.794 L97.106,3.794 Z" id="Fill-9" fill="#FF592E" sketch:type="MSShapeGroup"></path>
        <path d="M72.118,60.794 L72.118,3.794" id="Stroke-10" stroke="#0043F9" stroke-width="2.025" sketch:type="MSShapeGroup"></path>
        <path d="M85.118,60.794 L85.118,3.794" id="Stroke-13" stroke="#0043F9" stroke-width="2.025" sketch:type="MSShapeGroup"></path>
        <path d="M98.118,60.794 L98.118,3.794" id="Stroke-16" stroke="#0043F9" stroke-width="2.025" sketch:type="MSShapeGroup"></path>
        <path d="M57.106,44.677 L123.106,44.677 L123.106,70.259 L57.106,70.259 L57.106,44.677 L57.106,44.677 Z" id="Fill-17" fill="#FF592E" sketch:type="MSShapeGroup"></path>
        <path d="M57.104,44.677 L61.284,44.677 L61.284,70.259 L57.104,70.259 L57.104,44.677 L57.104,44.677 Z" id="Fill-18" fill="#0000FF" sketch:type="MSShapeGroup"></path>
        <path d="M105.344,59.748 C105.344,60.103 105.057,60.392 104.701,60.392 C104.346,60.392 104.06,60.103 104.06,59.748 C104.06,59.394 104.346,59.105 104.701,59.105 C105.057,59.105 105.344,59.394 105.344,59.748 M75.477,57.761 C75.477,56.748 74.792,56.084 73.979,56.084 C73.165,56.084 72.451,56.759 72.451,57.78 C72.451,58.793 73.165,59.458 73.979,59.458 C74.803,59.458 75.477,58.812 75.477,57.761 M71.28,55.152 L72.481,55.152 L72.481,56.025 C72.868,55.479 73.413,55.042 74.258,55.042 C75.497,55.042 76.698,56.025 76.698,57.78 C76.698,59.518 75.508,60.5 74.258,60.5 C73.394,60.5 72.849,60.064 72.481,59.576 L72.481,61.979 L71.28,61.979 L71.28,55.152 M81.63,57.78 C81.63,56.859 80.965,56.093 80.021,56.093 C79.06,56.093 78.445,56.848 78.445,57.78 C78.445,58.693 79.109,59.469 80.042,59.469 C81.015,59.469 81.63,58.704 81.63,57.78 M77.244,57.78 C77.244,56.283 78.435,55.042 80.042,55.042 C81.649,55.042 82.83,56.263 82.83,57.78 C82.83,59.27 81.64,60.509 80.021,60.509 C78.425,60.509 77.244,59.289 77.244,57.78 M83.366,57.78 C83.366,56.293 84.517,55.042 86.085,55.042 C87.077,55.042 87.692,55.41 88.178,55.944 L87.434,56.749 C87.067,56.361 86.68,56.093 86.075,56.093 C85.202,56.093 84.567,56.848 84.567,57.78 C84.567,58.715 85.212,59.469 86.134,59.469 C86.7,59.469 87.117,59.2 87.494,58.812 L88.218,59.526 C87.702,60.103 87.097,60.509 86.075,60.509 C84.517,60.509 83.366,59.289 83.366,57.78 M88.923,53.201 L90.124,53.201 L90.124,55.965 C90.461,55.469 90.947,55.043 91.761,55.043 C92.941,55.043 93.626,55.835 93.626,57.058 L93.626,60.392 L92.426,60.392 L92.426,57.414 C92.426,56.6 92.019,56.135 91.304,56.135 C90.609,56.135 90.124,56.62 90.124,57.434 L90.124,60.392 L88.923,60.392 L88.923,53.201 M94.926,58.943 L94.926,56.184 L94.261,56.184 L94.261,55.151 L94.926,55.151 L94.926,53.713 L96.127,53.713 L96.127,55.151 L97.536,55.151 L97.536,56.184 L96.127,56.184 L96.127,58.753 C96.127,59.219 96.365,59.409 96.772,59.409 C97.039,59.409 97.278,59.35 97.516,59.23 L97.516,60.212 C97.218,60.381 96.881,60.48 96.434,60.48 C95.551,60.48 94.926,60.093 94.926,58.943 M101.783,58.197 C101.475,58.078 101.048,57.989 100.582,57.989 C99.828,57.989 99.381,58.296 99.381,58.823 C99.381,59.319 99.828,59.596 100.394,59.596 C101.187,59.596 101.783,59.15 101.783,58.495 L101.783,58.197 L101.783,58.197 Z M101.753,60.39 L101.753,59.745 C101.395,60.173 100.85,60.5 100.056,60.5 C99.063,60.5 98.19,59.935 98.19,58.862 C98.19,57.701 99.094,57.147 100.313,57.147 C100.949,57.147 101.356,57.235 101.763,57.365 L101.763,57.266 C101.763,56.54 101.306,56.144 100.473,56.144 C99.888,56.144 99.451,56.273 98.975,56.471 L98.646,55.509 C99.223,55.25 99.788,55.073 100.642,55.073 C102.188,55.073 102.943,55.885 102.943,57.285 L102.943,60.39 L101.753,60.39 L101.753,60.39 Z M110.465,55.187 L111.666,55.187 L111.666,60.391 L110.465,60.391 L110.465,55.187 L110.465,55.187 Z M106.962,56.184 L106.297,56.184 L106.297,55.181 L106.962,55.181 L106.962,54.804 C106.962,53.627 107.322,53.201 108.552,53.201 L109.542,53.201 L109.542,54.263 L108.163,54.263 L108.163,55.193 L109.542,55.193 L109.542,56.184 L108.163,56.184 L108.163,60.39 L106.962,60.39 L106.962,56.184 L106.962,56.184 Z M110.473,53.202 L111.657,53.202 L111.657,54.263 L110.473,54.263 L110.473,53.202 L110.473,53.202 Z" id="Fill-19" fill="#FFFFFF" sketch:type="MSShapeGroup"></path>
    </g>
</svg>