<?xml version="1.0" encoding="UTF-8" standalone="no"?>
<svg width="113px" height="80px" viewBox="0 0 113 80" version="1.1" xmlns="http://www.w3.org/2000/svg" xmlns:xlink="http://www.w3.org/1999/xlink" xmlns:sketch="http://www.bohemiancoding.com/sketch/ns">
    <!-- Generator: Sketch 3.1 (8751) - http://www.bohemiancoding.com/sketch -->
    <title>success-letter</title>
    <desc>Created with Sketch.</desc>
    <defs></defs>
    <g id="Page-1" stroke="none" stroke-width="1" fill="none" fill-rule="evenodd" sketch:type="MSPage">
        <g id="Imported-Layers" sketch:type="MSLayerGroup" transform="translate(1.000000, 2.000000)">
            <path d="M0.484,-0.187 L98.581,-0.187 L98.581,63.527 L0.484,63.527 L0.484,-0.187 Z" id="Fill-1" fill="#FFFFFF" sketch:type="MSShapeGroup"></path>
            <path d="M0.484,63.526 L98.581,63.526 L98.581,-0.188 L0.484,-0.188 L0.484,63.526 Z M95.482,62.877 L49.534,20.507 L3.585,62.877 L95.482,62.877 Z" id="Stroke-2" stroke="#FF592E" stroke-width="2.756" sketch:type="MSShapeGroup"></path>
            <path d="M49.533,42.224 L95.778,-0.187 L3.291,-0.187 L49.533,42.224" id="Fill-3" fill="#FFFFFF" sketch:type="MSShapeGroup"></path>
            <path d="M49.533,42.224 L95.778,-0.187 L3.291,-0.187 L49.533,42.224 L49.533,42.224 Z" id="Stroke-4" stroke="#FF592E" stroke-width="2.756" sketch:type="MSShapeGroup"></path>
            <path d="M94.716,77.234 C104.233,77.234 111.945,69.487 111.945,59.935 C111.945,50.372 104.233,42.632 94.716,42.632 C85.202,42.632 77.489,50.372 77.489,59.935 C77.489,69.487 85.202,77.234 94.716,77.234" id="Fill-5" fill="#0000FF" sketch:type="MSShapeGroup"></path>
            <path d="M84.704,56.299 L92.768,69.052 L102.916,49.716" id="Stroke-6" stroke="#FFFFFF" stroke-width="2.756" sketch:type="MSShapeGroup"></path>
        </g>
    </g>
</svg>