<svg version="1.1" id="error-face" xmlns="http://www.w3.org/2000/svg" xmlns:xlink="http://www.w3.org/1999/xlink" x="0px" y="0px"
	 viewBox="0 0 66.1 66.1" enable-background="new 0 0 66.1 66.1" xml:space="preserve">
<g>
	<circle fill="none" stroke="#0000FF" stroke-width="4" stroke-miterlimit="10" cx="33" cy="33.1" r="31"/>
	<path fill="none" stroke="#0000FF" stroke-width="4" stroke-miterlimit="10" d="M20.1,50C20.1,42.8,25.9,37,33,37
		C40.2,37,46,42.8,46,50"/>
	<g>
		<line fill="none" stroke="#0000FF" stroke-width="4" stroke-miterlimit="10" x1="19.5" y1="23" x2="23" y2="23"/>
		<line fill="none" stroke="#0000FF" stroke-width="4" stroke-miterlimit="10" x1="43.1" y1="23" x2="46.6" y2="23"/>
	</g>
</g>
</svg>
