<?xml version="1.0" encoding="UTF-8" standalone="no"?>
<svg width="17px" height="18px" viewBox="0 0 17 18" version="1.1" xmlns="http://www.w3.org/2000/svg" xmlns:xlink="http://www.w3.org/1999/xlink" xmlns:sketch="http://www.bohemiancoding.com/sketch/ns">
    <!-- Generator: Sketch 3.1.1 (8761) - http://www.bohemiancoding.com/sketch -->
    <title>Fill 1</title>
    <desc>Created with Sketch.</desc>
    <defs></defs>
    <g id="Page-1" stroke="none" stroke-width="1" fill="none" fill-rule="evenodd" sketch:type="MSPage">
        <path d="M9.541,3.20999695 L2.649,10.1009969 L6.237,13.6889969 L13.129,6.79699695 L9.541,3.20999695 L9.541,3.20999695 Z M12.051,0.699996948 L10.412,2.33999695 L13.999,5.92699695 L15.639,4.28799695 L12.051,0.699996948 L12.051,0.699996948 Z M1.834,10.8919969 L0.5,15.8679969 L5.477,14.5339969 L1.834,10.8919969 L1.834,10.8919969 Z M0.5,17.5219969 L16.639,17.5219969 L16.639,17.9769969 L0.5,17.9769969 L0.5,17.5219969 L0.5,17.5219969 Z" id="Fill-1" fill="#CAC9CA" sketch:type="MSShapeGroup"></path>
    </g>
</svg>