<?xml version="1.0" encoding="UTF-8" standalone="no"?>
<svg width="17px" height="17px" viewBox="0 0 17 17" version="1.1" xmlns="http://www.w3.org/2000/svg" xmlns:xlink="http://www.w3.org/1999/xlink" xmlns:sketch="http://www.bohemiancoding.com/sketch/ns">
    <!-- Generator: Sketch 3.1.1 (8761) - http://www.bohemiancoding.com/sketch -->
    <title>time-short</title>
    <desc>Created with Sketch.</desc>
    <defs>
        <path id="path-1" d="M14.827,7.412 C14.827,11.508 11.508,14.827 7.414,14.827 C3.319,14.827 0,11.508 0,7.412 C0,3.319 3.319,0 7.414,0 C11.508,0 14.827,3.319 14.827,7.412"></path>
    </defs>
    <g id="Page-1" stroke="none" stroke-width="1" fill="none" fill-rule="evenodd" sketch:type="MSPage">
        <g id="Imported-Layers" sketch:type="MSLayerGroup" transform="translate(1.000000, 1.000000)">
            <path d="M14.827,7.412 C14.827,11.508 11.508,14.827 7.414,14.827 C3.319,14.827 0,11.508 0,7.412 C0,3.319 3.319,0 7.414,0 C11.508,0 14.827,3.319 14.827,7.412 L14.827,7.412 Z" id="Stroke-1" stroke="#464547" stroke-width="1.197" sketch:type="MSShapeGroup"></path>
            <g id="Group-4">
                <mask id="mask-2" sketch:name="Clip 3" fill="white">
                    <use xlink:href="#path-1"></use>
                </mask>
                <g id="Clip-3"></g>
                <path d="M7,7.5 L7.122,0.547 L9.203,-6.279 L11.282,1.385 L7,7.5 Z" id="Fill-2" fill="#464547" sketch:type="MSShapeGroup" mask="url(#mask-2)"></path>
            </g>
        </g>
    </g>
</svg>