<?xml version="1.0" encoding="UTF-8" standalone="no"?>
<svg width="17px" height="17px" viewBox="0 0 17 17" version="1.1" xmlns="http://www.w3.org/2000/svg" xmlns:xlink="http://www.w3.org/1999/xlink" xmlns:sketch="http://www.bohemiancoding.com/sketch/ns">
    <!-- Generator: Sketch 3.1.1 (8761) - http://www.bohemiancoding.com/sketch -->
    <title>time-longer</title>
    <desc>Created with Sketch.</desc>
    <defs>
        <path id="path-1" d="M14.652,7.33 C14.652,11.377 11.371,14.656 7.325,14.656 C3.275,14.656 -0.007,11.377 -0.007,7.33 C-0.007,3.281 3.275,0 7.325,0 C11.371,0 14.652,3.281 14.652,7.33"></path>
    </defs>
    <g id="Page-1" stroke="none" stroke-width="1" fill="none" fill-rule="evenodd" sketch:type="MSPage">
        <g id="Imported-Layers" sketch:type="MSLayerGroup" transform="translate(1.000000, 1.000000)">
            <path d="M14.652,7.33 C14.652,11.377 11.371,14.656 7.325,14.656 C3.275,14.656 -0.007,11.377 -0.007,7.33 C-0.007,3.281 3.275,0 7.325,0 C11.371,0 14.652,3.281 14.652,7.33 L14.652,7.33 Z" id="Stroke-1" stroke="#464547" stroke-width="1.184" sketch:type="MSShapeGroup"></path>
            <g id="Group-4">
                <mask id="mask-2" sketch:name="Clip 3" fill="white">
                    <use xlink:href="#path-1"></use>
                </mask>
                <g id="Clip-3"></g>
                <path d="M7,7.496 L7,-3.28076172 L16.433,-5 L17.2797852,7.49600029 L7,7.496 Z" id="Fill-2" fill="#464547" sketch:type="MSShapeGroup" mask="url(#mask-2)"></path>
            </g>
        </g>
    </g>
</svg>